PlatypusV3 AgedCNS vignette
…
## 4038: 0.008278197 0.29550201 0.38073040 -0.8234590 -1.6659299    4
##                                  leadingEdge
##    1:                                  RGS10
##    2:                            PLAUR,LRRK2
##    3: MS4A1,SERP1,BIRC3,LY6E,MZB1,TXNDC5,...
##    4:                             SP140,LY6E
##    5:                            LY6E,SHISA5
##   ---                                       
## 4034: C1QB,C1QC,CTSD,P2RY12,FCER1G,CSF1R,...
## 4035:                              BLK,CXCR5
## 4036:                 C1QB,CSF1R,CX3CR1,CTSL
## 4037:                 MS4A1,CCR7,BANK1,FCRL1
## 4038:                       C1QB,C1QC,P2RY12
## [1] "post-gsea"
## # A tibble: 4,038 x 8
##    pathway                    pval    padj log2err    ES   NES  size leadingEdge
##    <chr>                     <dbl>   <dbl>   <dbl> <dbl> <dbl> <int> <list>     
##  1 GSE32901_NAIVE_VS_TH1~  3.68e-8 1.48e-4   0.720 0.691  3.03    24 <chr [14]> 
##  2 GSE16266_LPS_VS_HEATS~  1.24e-6 1.62e-3   0.644 0.624  2.82    26 <chr [18]> 
##  3 GSE29618_BCELL_VS_PDC~  2.23e-6 1.80e-3   0.627 0.601  2.73    27 <chr [17]> 
##  4 GSE29618_BCELL_VS_MDC~  8.61e-6 4.97e-3   0.593 0.560  2.68    30 <chr [20]> 
##  5 GSE29618_BCELL_VS_MON~  3.16e-5 1.42e-2   0.557 0.540  2.55    29 <chr [19]> 
##  6 GSE29618_BCELL_VS_MDC~  8.67e-5 2.94e-2   0.538 0.499  2.41    32 <chr [20]> 
##  7 GSE23568_ID3_KO_VS_WT~  1.83e-4 3.51e-2   0.519 0.483  2.34    33 <chr [25]> 
##  8 GSE4984_UNTREATED_VS_~  3.09e-4 5.05e-2   0.498 0.534  2.31    23 <chr [18]> 
##  9 GSE33425_CD8_ALPHAALP~  3.13e-4 5.05e-2   0.498 0.534  2.31    23 <chr [20]> 
## 10 GSE33424_CD161_HIGH_V~  1.48e-4 3.15e-2   0.519 0.513  2.30    25 <chr [21]> 
## # ... with 4,028 more rows
…
